[
  {
    "name": "Domains",
    "properties": [
      {
        "name": "syncDomain",
        "title": "同步域名",
        "type": "gjson",
        "resource": {
          "group": "extensions",
          "version": "v1beta1",
          "kind": "Ingress",
          "name": "{{ .Values.cluster }}-serverless-sync-ingress"
        },
        "path": "spec.rules.0.host"
      },
      {
        "name": "asyncDomain",
        "title": "异步域名",
        "type": "gjson",
        "resource": {
          "group": "extensions",
          "version": "v1beta1",
          "kind": "Ingress",
          "name": "{{ .Values.cluster }}-serverless-async-ingress"
        },
        "path": "spec.rules.0.host"
      }
    ]
  },
  {
    "name": "Static",
    "properties": [
      {
        "name": "cluster",
        "description": "集群名称",
        "type": "value",
        "value": "{{ .Values.cluster }}"
      }
    ]
  }
]